............................
----------------------------------------------------------------------
Ran 28 tests in 9.676s

OK
Name             Stmts   Miss Branch BrPart  Cover   Missing
------------------------------------------------------------
Collatz.py          32      0     14      0   100%
TestCollatz.py     110      0      0      0   100%
------------------------------------------------------------
TOTAL              142      0     14      0   100%
