......................
----------------------------------------------------------------------
Ran 22 tests in 0.119s

OK
Name             Stmts   Miss Branch BrPart  Cover   Missing
------------------------------------------------------------
Collatz.py          28      0     12      0   100%
TestCollatz.py      95      2      0      0    98%   91-92
------------------------------------------------------------
TOTAL              123      2     12      0    99%
